<?xml version="1.0" encoding="UTF-8"?>
<!DOCTYPE svg PUBLIC "-//W3C//DTD SVG 1.1//EN" "http://www.w3.org/Graphics/SVG/1.1/DTD/svg11.dtd">
<!-- Creator: CorelDRAW 2017 -->
<svg xmlns="http://www.w3.org/2000/svg" xml:space="preserve" width="256px" height="110px" version="1.1" style="shape-rendering:geometricPrecision; text-rendering:geometricPrecision; image-rendering:optimizeQuality; fill-rule:evenodd; clip-rule:evenodd"
viewBox="0 0 36.56 15.61"
 xmlns:xlink="http://www.w3.org/1999/xlink">
 <defs>
  <style type="text/css">
   <![CDATA[
    .fil0 {fill:#5E51FF}
   ]]>
  </style>
 </defs>
 <g id="Capa_x0020_1">
  <metadata id="CorelCorpID_0Corel-Layer"/>
  <path class="fil0" d="M36.31 4.66l-1.81 -1.81c-0.16,-0.16 -0.37,-0.25 -0.6,-0.25l-0.83 0 0 -1.75c0,-0.47 -0.38,-0.85 -0.85,-0.85l-31.37 0c-0.47,0 -0.85,0.38 -0.85,0.85l0 11.82c0,0.47 0.38,0.85 0.85,0.85l2.45 0c0.28,1.2 1.36,2.09 2.65,2.09 1.28,0 2.36,-0.89 2.65,-2.09l1.89 0c0.28,1.2 1.36,2.09 2.65,2.09 1.29,0 2.36,-0.89 2.65,-2.09l7.77 0c0.28,1.2 1.36,2.09 2.65,2.09 1.29,0 2.36,-0.89 2.65,-2.09l3.36 0c0.47,0 0.85,-0.38 0.85,-0.85l0 -8.37 0.48 0 1.56 1.56c0.17,0.16 0.39,0.25 0.6,0.25 0.22,0 0.44,-0.09 0.6,-0.25 0.33,-0.33 0.33,-0.87 0,-1.2zm-5.88 -0.36l0.94 0 0 3.02 -7.22 -1.92 0 -3.7 7.22 0 0 0.9 -0.94 0c-0.47,0 -0.85,0.38 -0.85,0.85 0,0.47 0.38,0.85 0.85,0.85zm-3.19 8.59c0,0.57 -0.46,1.03 -1.03,1.03 -0.57,0 -1.03,-0.46 -1.03,-1.03 0,-0.57 0.46,-1.03 1.03,-1.03 0.57,0 1.03,0.46 1.03,1.03zm-13.07 0c0,0.57 -0.46,1.03 -1.03,1.03 -0.57,0 -1.03,-0.46 -1.03,-1.03 0,-0.57 0.46,-1.03 1.03,-1.03 0.57,0 1.03,0.46 1.03,1.03zm-7.2 0c0,0.57 -0.46,1.03 -1.02,1.03 -0.57,0 -1.03,-0.46 -1.03,-1.03 0,-0.57 0.46,-1.03 1.03,-1.03 0.56,0 1.02,0.46 1.02,1.03zm19.24 -2.72c-1.12,0 -2.09,0.68 -2.51,1.65l-8.05 0c-0.42,-0.97 -1.39,-1.65 -2.51,-1.65 -1.12,0 -2.09,0.68 -2.51,1.65l-2.18 0c-0.41,-0.97 -1.38,-1.65 -2.5,-1.65 -1.13,0 -2.09,0.68 -2.51,1.65l-1.74 0 0 -4.92 21.49 0 8.04 2.13c0.05,0.02 0.09,0.02 0.14,0.03l0 2.76 -2.65 0c-0.42,-0.97 -1.39,-1.65 -2.51,-1.65zm-3.75 -4.97l-20.76 0 0 -3.5 20.76 0 0 3.5z"/>
 </g>
</svg>
